[
    {
        "id": 1,
        "gaugeId": 1,
        "value": 128,
        "recordingDate": "2019-06-30",
        "offset": 0
    },
    {
        "id": 2,
        "gaugeId": 2,
        "value": 127,
        "recordingDate": "2019-06-30",
        "offset": 0
    },
    {
        "id": 3,
        "gaugeId": 3,
        "value": 123,
        "recordingDate": "2019-06-30",
        "offset": 0
    },
    {
        "id": 4,
        "gaugeId": 4,
        "value": 124,
        "recordingDate": "2019-06-30",
        "offset": 0
    },
    {
        "id": 5,
        "gaugeId": 5,
        "value": 1025,
        "recordingDate": "2019-06-30",
        "offset": 0
    },
    {
        "id": 6,
        "gaugeId": 6,
        "value": 1026,
        "recordingDate": "2019-06-30",
        "offset": 0
    },
    {
        "id": 1,
        "gaugeId": 1,
        "value": 111,
        "recordingDate": "2019-05-31",
        "offset": 0
    },
    {
        "id": 2,
        "gaugeId": 2,
        "value": 112,
        "recordingDate": "2019-05-31",
        "offset": 0
    },
    {
        "id": 3,
        "gaugeId": 3,
        "value": 113,
        "recordingDate": "2019-05-31",
        "offset": 0
    },
    {
        "id": 4,
        "gaugeId": 4,
        "value": 114,
        "recordingDate": "2019-05-31",
        "offset": 0
    },
    {
        "id": 5,
        "gaugeId": 5,
        "value": 1015,
        "recordingDate": "2019-05-31",
        "offset": 0
    },
    {
        "id": 6,
        "gaugeId": 6,
        "value": 1016,
        "recordingDate": "2019-05-31",
        "offset": 0
    },
    {
        "id": 1,
        "gaugeId": 1,
        "value": 101,
        "recordingDate": "2019-04-30",
        "offset": 0
    },
    {
        "id": 2,
        "gaugeId": 2,
        "value": 102,
        "recordingDate": "2019-04-30",
        "offset": 0
    },
    {
        "id": 3,
        "gaugeId": 3,
        "value": 103,
        "recordingDate": "2019-04-30",
        "offset": 0
    },
    {
        "id": 4,
        "gaugeId": 4,
        "value": 104,
        "recordingDate": "2019-04-30",
        "offset": 0
    },
    {
        "id": 5,
        "gaugeId": 5,
        "value": 1005,
        "recordingDate": "2019-04-30",
        "offset": 0
    },
    {
        "id": 6,
        "gaugeId": 6,
        "value": 1006,
        "recordingDate": "2019-04-30",
        "offset": 0
    }
]